{
  "project_info": {
    "project_number": "212194264679",
    "firebase_url": "https://login-prueba-1588823537873.firebaseio.com",
    "project_id": "login-prueba-1588823537873",
    "storage_bucket": "login-prueba-1588823537873.appspot.com"
  },
  "client": [
    {
      "client_info": {
        "mobilesdk_app_id": "1:212194264679:android:1a7bc85caa2fd52f73b6c2",
        "android_client_info": {
          "package_name": "com.example.logingoogle"
        }
      },
      "oauth_client": [
        {
          "client_id": "212194264679-1jje3ej3r0nvvj19fg6b4hukdml96s54.apps.googleusercontent.com",
          "client_type": 1,
          "android_info": {
            "package_name": "com.example.logingoogle",
            "certificate_hash": "7ddb667c1c0a319639ce1263516b85e04f57434c"
          }
        },
        {
          "client_id": "212194264679-1m8u7afbpqhr8veodits4033q6hma6rv.apps.googleusercontent.com",
          "client_type": 3
        }
      ],
      "api_key": [
        {
          "current_key": "AIzaSyDbYyot3cK31X5f_Fmoarwi6YY_bxKLEvs"
        }
      ],
      "services": {
        "appinvite_service": {
          "other_platform_oauth_client": [
            {
              "client_id": "212194264679-1m8u7afbpqhr8veodits4033q6hma6rv.apps.googleusercontent.com",
              "client_type": 3
            }
          ]
        }
      }
    }
  ],
  "configuration_version": "1"
}